<?xml version="1.0" encoding="utf-8"?>
<!-- Generator: Adobe Illustrator 21.0.0, SVG Export Plug-In . SVG Version: 6.00 Build 0)  -->
<svg version="1.1" id="Layer_1" xmlns="http://www.w3.org/2000/svg" xmlns:xlink="http://www.w3.org/1999/xlink" x="0px" y="0px"
	 viewBox="0 0 141.9 50" style="enable-background:new 0 0 141.9 50;" xml:space="preserve">
<style type="text/css">
	.st0{fill:#E0E0E0;}
	.st1{fill:#868686;}
	.st2{fill:#F8F8F8;}
	.st3{fill:url(#SVGID_1_);}
	.st4{fill:#2D5F9B;}
	.st5{fill:#EB640F;}
	.st6{fill:#25538E;}
</style>
<g>
	<path class="st0" d="M141.9,41.9c0,4.5-3.6,8.1-8.1,8.1H8.1C3.6,50,0,46.4,0,41.9V8.1C0,3.6,3.6,0,8.1,0h125.8
		c4.5,0,8.1,3.6,8.1,8.1V41.9z"/>
	<path class="st1" d="M141.9,41.9c0,4.5-3.6,8.1-8.1,8.1H9.7c-4.5,0-8.1-3.6-8.1-8.1V9.7c0-4.5,3.6-8.1,8.1-8.1h124.2
		c4.5,0,8.1,3.6,8.1,8.1V41.9z"/>
	<g>
		<path class="st2" d="M140.3,41.9c0,3.6-2.9,6.5-6.5,6.5H8.1c-3.6,0-6.5-2.9-6.5-6.5V8.1c0-3.6,2.9-6.5,6.5-6.5h125.8
			c3.6,0,6.5,2.9,6.5,6.5V41.9z"/>
		<linearGradient id="SVGID_1_" gradientUnits="userSpaceOnUse" x1="70.9677" y1="1.6129" x2="70.9677" y2="48.3871">
			<stop  offset="0" style="stop-color:#FBFBFB"/>
			<stop  offset="1" style="stop-color:#F2F2F2"/>
		</linearGradient>
		<path class="st3" d="M140.3,41.9c0,3.6-2.9,6.5-6.5,6.5H8.1c-3.6,0-6.5-2.9-6.5-6.5V8.1c0-3.6,2.9-6.5,6.5-6.5h125.8
			c3.6,0,6.5,2.9,6.5,6.5V41.9z"/>
	</g>
	<g>
		<path class="st4" d="M42.1,13.3c-1.4,0-9.6,0-9.6,0c-3.3,0-3.4,2.5-3.4,3.1c0,0.6,0,11.8,0,16.3c0,4.3,3.9,4,3.9,4
			c0.6,0,2.6,0,8.6,0c10.9,0,11.6-8.6,11.6-10.9c0-0.8,0-1,0-1.8C52.8,14.6,45.2,13.3,42.1,13.3z M39.7,30.3h-2.1l0-10.6h2.3
			c0,0,4.7-0.4,4.7,5.1S39.7,30.3,39.7,30.3z"/>
		<path class="st4" d="M17.7,24.8l8.7-3.5l-0.1,11.8c0,0,0.1,4-4.3,4c-4.4,0-4.4-3.7-4.4-3.7L17.7,24.8z"/>
		<path class="st5" d="M26.5,18.5l-8.7,3.5l0.1-5c0,0-0.1-4,4.3-4c4.4,0,4.4,3.7,4.4,3.7L26.5,18.5z"/>
	</g>
	<g>
		<path class="st6" d="M57.7,25h5.1v1.8h-5.1V25z"/>
		<path class="st6" d="M68.6,24.9h-0.9v8.4h-1.9V15.2h1.9v8.4l0.9-0.4l4.7-8.1h2.2L70.7,23l-0.9,0.8l1.1,1l5.2,8.4h-2.5L68.6,24.9z"
			/>
		<path class="st6" d="M86,28.2h-5.1l-1.4,5.1h-1.9L83,14.9h1.1l5.4,18.3h-2L86,28.2z M81.4,26.5h4.1L84,20.9l-0.5-2.7h-0.1L83,20.9
			L81.4,26.5z"/>
		<path class="st6" d="M99.2,28.2h-5.1l-1.4,5.1h-1.9l5.4-18.3h1.1l5.4,18.3h-2L99.2,28.2z M94.6,26.5h4.1l-1.6-5.6l-0.5-2.7h-0.1
			l-0.5,2.8L94.6,26.5z"/>
		<path class="st6" d="M104.7,15.3c0.6-0.1,1.2-0.2,1.9-0.3c0.7-0.1,1.3-0.1,1.9-0.1c0.7,0,1.3,0.1,1.9,0.2c0.6,0.2,1.1,0.4,1.6,0.8
			c0.4,0.4,0.8,0.9,1.1,1.5c0.3,0.6,0.4,1.4,0.4,2.4c0,1.4-0.3,2.6-0.9,3.4c-0.6,0.9-1.4,1.4-2.4,1.7l1,1l3.6,7.2h-2.2l-3.9-7.9
			l-1.9-0.4v8.3h-1.9V15.3z M106.6,23.7h1.5c1,0,1.8-0.3,2.3-0.9c0.6-0.6,0.9-1.5,0.9-2.8c0-0.9-0.2-1.7-0.7-2.3
			c-0.5-0.6-1.2-0.9-2.1-0.9c-0.3,0-0.7,0-1.1,0c-0.4,0-0.7,0.1-0.8,0.1V23.7z"/>
		<path class="st6" d="M126.2,16.9h-4.4v16.3h-1.9V16.9h-4.4v-1.8h10.8V16.9z"/>
	</g>
</g>
</svg>
