<?xml version="1.0" encoding="utf-8"?>
<!-- Generator: Adobe Illustrator 21.0.0, SVG Export Plug-In . SVG Version: 6.00 Build 0)  -->
<svg version="1.1" id="Layer_1" xmlns="http://www.w3.org/2000/svg" xmlns:xlink="http://www.w3.org/1999/xlink" x="0px" y="0px"
	 viewBox="0 0 33 46" style="enable-background:new 0 0 33 46;" xml:space="preserve">
<style type="text/css">
	.st0{fill:#003AB3;}
	.st1{fill:#FFFFFF;}
</style>
<path class="st0" d="M16.6,0L16.6,0C7.4,0,0,7.4,0,16.6c0,3.2,1,6.2,2.4,8.8l10.8,18.8c0.7,1.2,2.1,1.8,3.3,1.8
	c1.3,0,2.6-0.6,3.3-1.8l10.8-18.7C32.1,23,33,20,33,16.7C33.2,7.4,25.8,0,16.6,0z"/>
<g>
	<g>
		<path class="st1" d="M7.3,25.4l9.1-14.7l-1.6-2.4c-0.2-0.3-0.1-0.7,0.2-1c0.3-0.2,0.8-0.1,1,0.2l1.2,1.9l1.2-1.9
			c0.2-0.3,0.6-0.4,1-0.2c0.3,0.2,0.4,0.6,0.2,1l-1.6,2.5l9.1,14.7c0.2,0.3,0.2,0.7,0,1.1c-0.2,0.3-0.5,0.5-0.9,0.5h-4
			c-0.3,0-0.7-0.2-0.9-0.5L18,21.3c-0.1-0.2-0.4-0.4-0.7-0.4c-0.3,0-0.5,0.1-0.7,0.4l-3.3,5.2C13,26.8,12.6,27,12.3,27h-4
			c-0.4,0-0.7-0.2-0.9-0.5C7.1,26.1,7.1,25.7,7.3,25.4L7.3,25.4z"/>
	</g>
</g>
</svg>
