{
   "list": [
      {
         "title": "Teater"
      },
      {
         "title": "Teater Vanemuine"
      },
      {
         "title": "Teater Elekter"
      },
      {
         "title": "Teater Teater veel üks"
      },
      {
         "title": "Teater"
      },
      {
         "title": "Teater Vanemuine"
      },
      {
         "title": "Teater Elekter"
      },
      {
         "title": "Teater Teater veel üks"
      },
      {
         "title": "Teater"
      },
      {
         "title": "Teater Vanemuine"
      },
      {
         "title": "Teater Elekter"
      },
      {
         "title": "Teater Teater veel üks"
      },
      {
         "title": "Teater"
      },
      {
         "title": "Teater Vanemuine"
      },
      {
         "title": "Teater Elekter"
      },
      {
         "title": "Teater Teater veel üks"
      }     
   ]
}