<?xml version="1.0" encoding="utf-8"?>
<!-- Generator: Adobe Illustrator 21.0.0, SVG Export Plug-In . SVG Version: 6.00 Build 0)  -->
<svg version="1.1" id="Layer_1" xmlns="http://www.w3.org/2000/svg" xmlns:xlink="http://www.w3.org/1999/xlink" x="0px" y="0px"
	 viewBox="0 0 33 46" style="enable-background:new 0 0 33 46;" xml:space="preserve">
<style type="text/css">
	.st0{fill:#0090F0;}
	.st1{fill:#FFFFFF;}
</style>
<path class="st0" d="M16.6,0L16.6,0C7.4,0,0,7.4,0,16.6c0,3.2,1,6.2,2.4,8.8l10.8,18.8c0.7,1.2,2.1,1.8,3.3,1.8
	c1.3,0,2.6-0.6,3.3-1.8l10.8-18.7C32.1,23,33,20,33,16.7C33.2,7.4,25.8,0,16.6,0z"/>
<path class="st1" d="M11.5,27c-2.1,0-3.8-1.7-3.8-3.8s1.7-3.8,3.8-3.8c0.4,0,0.9,0.1,1.4,0.2v-9c0-0.2,0.1-0.4,0.3-0.4L24.8,7
	c0,0,0,0,0.1,0c0.1,0,0.1,0.1,0.2,0.1c0.1,0.1,0.1,0.2,0.1,0.3v13.3c0,0,0,0.1,0,0.1c-0.2,1.9-1.8,3.2-3.7,3.2
	c-2.1,0-3.8-1.7-3.8-3.8s1.7-3.8,3.8-3.8c0.4,0,0.9,0.1,1.4,0.2v-4.6l-7.7,2.3v8.7C15.3,25.3,13.6,27,11.5,27z"/>
</svg>
